readfile_R.utf8.md
…
coffee=read_delim("coffee.txt"," ")

## Parsed with column specification:
## cols(
##   cup = col_character(),
##   tempdiff = col_double()
## )

Name of the cup, text, and tempdiff, a decimal number.

Looking at the values

coffee

## # A tibble: 32 x 2
##    cup       tempdiff
##    <chr>        <dbl>
##  1 Starbucks     13  
##  2 Starbucks      7  
##  3 Starbucks      7  
##  4 Starbucks     17.5
##  5 Starbucks     10  
##  6 Starbucks     15.5
##  7 Starbucks      6  
##  8 Starbucks      6  
##  9 SIGG          12  
## 10 SIGG          16  
## #  with 22 more rows
…
## Parsed with column specification:
## cols(
##   case = col_double(),
##   scrap = col_double(),
##   speed = col_double(),
##   line = col_character()
## )

The soap data

soap

## # A tibble: 27 x 4
##     case scrap speed line 
##    <dbl> <dbl> <dbl> <chr>
##  1     1   218   100 a    
##  2     2   248   125 a    
##  3     3   360   220 a    
##  4     4   351   205 a    
##  5     5   470   300 a    
##  6     6   394   255 a    
##  7     7   332   225 a    
##  8     8   321   175 a    
##  9     9   410   270 a    
## 10    10   260   170 a    
## #  with 17 more rows
…
