…
- Name of the cup, text, and tempdiff, a decimal number.

## Looking at the values (some)


```r
coffee
```

```
## # A tibble: 32 x 2
##    cup       tempdiff
##    <chr>        <dbl>
##  1 Starbucks     13  
##  2 Starbucks      7  
##  3 Starbucks      7  
##  4 Starbucks     17.5
##  5 Starbucks     10  
##  6 Starbucks     15.5
##  7 Starbucks      6  
##  8 Starbucks      6  
##  9 SIGG          12  
## 10 SIGG          16  
## # … with 22 more rows
```
…
## The soap data (some)


```r
soap
```

```
## # A tibble: 27 x 4
##     case scrap speed line 
##    <dbl> <dbl> <dbl> <chr>
##  1     1   218   100 a    
##  2     2   248   125 a    
##  3     3   360   220 a    
##  4     4   351   205 a    
##  5     5   470   300 a    
##  6     6   394   255 a    
##  7     7   332   225 a    
##  8     8   321   175 a    
##  9     9   410   270 a    
## 10    10   260   170 a    
## # … with 17 more rows
```
…
## The data (some)


```r
athletes
```

```
## # A tibble: 202 x 13
##    Sex    Sport     RCC   WCC    Hc    Hg  Ferr   BMI
##    <chr>  <chr>   <dbl> <dbl> <dbl> <dbl> <dbl> <dbl>
##  1 female Netball  4.56  13.3  42.2  13.6    20  19.2
##  2 female Netball  4.15   6    38    12.7    59  21.2
##  3 female Netball  4.16   7.6  37.5  12.3    22  21.4
##  4 female Netball  4.32   6.4  37.7  12.3    30  21.0
##  5 female Netball  4.06   5.8  38.7  12.8    78  21.8
##  6 female Netball  4.12   6.1  36.6  11.8    21  21.4
##  7 female Netball  4.17   5    37.4  12.7   109  21.5
##  8 female Netball  3.8    6.6  36.5  12.4   102  24.4
##  9 female Netball  3.96   5.5  36.3  12.4    71  22.6
## 10 female Netball  4.44   9.7  41.4  14.1    64  22.8
## # … with 192 more rows, and 5 more variables:
## #   SSF <dbl>, `%Bfat` <dbl>, LBM <dbl>, Ht <dbl>,
## #   Wt <dbl>
```
…
```
## See spec(...) for full column specifications.
```

## Taking a look


```r
jays
```

```
## # A tibble: 25 x 21
##      row  game date      box   team  venue opp   result
##    <dbl> <dbl> <chr>     <chr> <chr> <lgl> <chr> <chr> 
##  1    82     7 Monday, … boxs… TOR   NA    TBR   L     
##  2    83     8 Tuesday,… boxs… TOR   NA    TBR   L     
##  3    84     9 Wednesda… boxs… TOR   NA    TBR   W     
##  4    85    10 Thursday… boxs… TOR   NA    TBR   L     
##  5    86    11 Friday, … boxs… TOR   NA    ATL   L     
##  6    87    12 Saturday… boxs… TOR   NA    ATL   W-wo  
##  7    88    13 Sunday, … boxs… TOR   NA    ATL   L     
##  8    89    14 Tuesday,… boxs… TOR   NA    BAL   W     
##  9    90    15 Wednesda… boxs… TOR   NA    BAL   W     
## 10    91    16 Thursday… boxs… TOR   NA    BAL   W     
## # … with 15 more rows, and 13 more variables:
## #   runs <dbl>, Oppruns <dbl>, innings <dbl>,
## #   wl <chr>, position <dbl>, gb <chr>, winner <chr>,
## #   loser <chr>, save <chr>, `game time` <time>,
## #   Daynight <chr>, attendance <dbl>, streak <chr>
```
…
## The data (some) 


```r
kids
```

```
## # A tibble: 44 x 2
##    group score
##    <chr> <dbl>
##  1 t        24
##  2 t        61
##  3 t        59
##  4 t        46
##  5 t        43
##  6 t        44
##  7 t        52
##  8 t        43
##  9 t        58
## 10 t        67
## # … with 34 more rows
```
…
- what makes the columns-to-be-gathered different, then
- what makes them the same, then
- the columns to gather, then (optionally)
- get rid of the missing values.

## Results (some)


```r
tb2
```

```
## # A tibble: 35,750 x 4
##    iso2   year genage  freq
##    <chr> <dbl> <chr>  <dbl>
##  1 AD     2005 m04        0
##  2 AD     2006 m04        0
##  3 AD     2008 m04        0
##  4 AE     2006 m04        0
##  5 AE     2007 m04        0
##  6 AE     2008 m04        0
##  7 AG     2007 m04        0
##  8 AL     2005 m04        0
##  9 AL     2006 m04        1
## 10 AL     2007 m04        0
## # … with 35,740 more rows
```
…
```r
tb2 %>% separate(genage, c("gender", "age"), 1) -> tb3
```

## Tidied tuberculosis data (some)


```r
tb3
```

```
## # A tibble: 35,750 x 5
##    iso2   year gender age    freq
##    <chr> <dbl> <chr>  <chr> <dbl>
##  1 AD     2005 m      04        0
##  2 AD     2006 m      04        0
##  3 AD     2008 m      04        0
##  4 AE     2006 m      04        0
##  5 AE     2007 m      04        0
##  6 AE     2008 m      04        0
##  7 AG     2007 m      04        0
##  8 AL     2005 m      04        0
##  9 AL     2006 m      04        1
## 10 AL     2007 m      04        0
## # … with 35,740 more rows
```
…
```
## See spec(...) for full column specifications.
```

## The data (some)


```r
weather
```

```
## # A tibble: 22 x 35
##    id       year month element    d1    d2    d3    d4
##    <chr>   <dbl> <dbl> <chr>   <dbl> <dbl> <dbl> <dbl>
##  1 MX17004  2010     1 tmax       NA  NA    NA      NA
##  2 MX17004  2010     1 tmin       NA  NA    NA      NA
##  3 MX17004  2010     2 tmax       NA  27.3  24.1    NA
##  4 MX17004  2010     2 tmin       NA  14.4  14.4    NA
##  5 MX17004  2010     3 tmax       NA  NA    NA      NA
##  6 MX17004  2010     3 tmin       NA  NA    NA      NA
##  7 MX17004  2010     4 tmax       NA  NA    NA      NA
##  8 MX17004  2010     4 tmin       NA  NA    NA      NA
##  9 MX17004  2010     5 tmax       NA  NA    NA      NA
## 10 MX17004  2010     5 tmin       NA  NA    NA      NA
## # … with 12 more rows, and 27 more variables:
## #   d5 <dbl>, d6 <dbl>, d7 <dbl>, d8 <dbl>, d9 <lgl>,
## #   d10 <dbl>, d11 <dbl>, d12 <lgl>, d13 <dbl>,
## #   d14 <dbl>, d15 <dbl>, d16 <dbl>, d17 <dbl>,
## #   d18 <lgl>, d19 <lgl>, d20 <lgl>, d21 <lgl>,
## #   d22 <lgl>, d23 <dbl>, d24 <lgl>, d25 <dbl>,
## #   d26 <dbl>, d27 <dbl>, d28 <dbl>, d29 <dbl>,
## #   d30 <dbl>, d31 <dbl>
```
…
```r
weather %>% gather(day, temperature, d1:d31, na.rm = T) -> d
```

## So far


```r
d
```

```
## # A tibble: 66 x 6
##    id       year month element day   temperature
##    <chr>   <dbl> <dbl> <chr>   <chr>       <dbl>
##  1 MX17004  2010    12 tmax    d1           29.9
##  2 MX17004  2010    12 tmin    d1           13.8
##  3 MX17004  2010     2 tmax    d2           27.3
##  4 MX17004  2010     2 tmin    d2           14.4
##  5 MX17004  2010    11 tmax    d2           31.3
##  6 MX17004  2010    11 tmin    d2           16.3
##  7 MX17004  2010     2 tmax    d3           24.1
##  8 MX17004  2010     2 tmin    d3           14.4
##  9 MX17004  2010     7 tmax    d3           28.6
## 10 MX17004  2010     7 tmin    d3           17.5
## # … with 56 more rows
```
…
```r
weather %>%
gather(day,temperature,d1:d31,na.rm=T) %>%
spread(element,temperature) -> d
```

## So far


```r
d
```

```
## # A tibble: 33 x 6
##    id       year month day    tmax  tmin
##    <chr>   <dbl> <dbl> <chr> <dbl> <dbl>
##  1 MX17004  2010     1 d30    27.8  14.5
##  2 MX17004  2010     2 d11    29.7  13.4
##  3 MX17004  2010     2 d2     27.3  14.4
##  4 MX17004  2010     2 d23    29.9  10.7
##  5 MX17004  2010     2 d3     24.1  14.4
##  6 MX17004  2010     3 d10    34.5  16.8
##  7 MX17004  2010     3 d16    31.1  17.6
##  8 MX17004  2010     3 d5     32.1  14.2
##  9 MX17004  2010     4 d27    36.3  16.7
## 10 MX17004  2010     5 d27    33.2  18.2
## # … with 23 more rows
```
…
## So far


```r
d
```

```
## # A tibble: 33 x 5
##     year month   day  tmax  tmin
##    <dbl> <dbl> <dbl> <dbl> <dbl>
##  1  2010     1    30  27.8  14.5
##  2  2010     2    11  29.7  13.4
##  3  2010     2     2  27.3  14.4
##  4  2010     2    23  29.9  10.7
##  5  2010     2     3  24.1  14.4
##  6  2010     3    10  34.5  16.8
##  7  2010     3    16  31.1  17.6
##  8  2010     3     5  32.1  14.2
##  9  2010     4    27  36.3  16.7
## 10  2010     5    27  33.2  18.2
## # … with 23 more rows
```
…
## Our tidy data frame


```r
weather_tidy
```

```
## # A tibble: 33 x 3
##    date        tmax  tmin
##    <date>     <dbl> <dbl>
##  1 2010-01-30  27.8  14.5
##  2 2010-02-11  29.7  13.4
##  3 2010-02-02  27.3  14.4
##  4 2010-02-23  29.9  10.7
##  5 2010-02-03  24.1  14.4
##  6 2010-03-10  34.5  16.8
##  7 2010-03-16  31.1  17.6
##  8 2010-03-05  32.1  14.2
##  9 2010-04-27  36.3  16.7
## 10 2010-05-27  33.2  18.2
## # … with 23 more rows
```
…
